…
While there does not appear to be any significant trends in this
individual genus, we do see significant differences in the mean length
mass ratio for each species of order Passeriformes. However, we see the
opposite trend that Allen’s Rule would predict.

    ## # A tibble: 679 x 6
    ## # Groups:   order, family, genus [380]
    ##    order           family       genus         species       ln_lmr altitude
    ##    <chr>           <chr>        <chr>         <chr>          <dbl>    <dbl>
    ##  1 Accipitriformes Accipitridae Accipiter     bicolor       0.360     1056 
    ##  2 Accipitriformes Accipitridae Accipiter     striatus      1.13       914 
    ##  3 Accipitriformes Accipitridae Amadonastur   lacernulatus -0.134      141.
    ##  4 Accipitriformes Accipitridae Buteo         brachyurus   -0.124       92 
    ##  5 Accipitriformes Accipitridae Buteo         nitidus      -0.0893      26 
    ##  6 Accipitriformes Accipitridae Chondrohierax uncinatus     0.623      943 
    ##  7 Accipitriformes Accipitridae Geranoaetus   albicaudatus -0.551      846 
    ##  8 Accipitriformes Accipitridae Geranospiza   caerulescens  0.197      514 
    ##  9 Accipitriformes Accipitridae Harpagus      diodon        0.608      388 
    ## 10 Accipitriformes Accipitridae Heterospizias meridionalis -0.402      592.
    ## # ... with 669 more rows
…
